orange,grün,blau
-19.33387807964715,-18.198098611560628,-18.580606657247152
-16.180103462445548,-15.214866333207118,-16.117649435744898
-13.2292910267333,-12.414035449680762,-13.97821496245261
-10.436243903980596,-9.816029951733954,-11.809336068769914
-7.710838418440377,-7.30123580553841,-9.741861063632012
-5.120584348923783,-4.831939937162605,-7.718589120545567
-2.53169127406618,-2.402999507022531,-5.783759998226534
-0.0,-0.0,-3.848930875907501
2.5576765036496774,2.383544412743571,-1.919225804228124
5.128527490979245,4.8241383880877455,-0.0
7.757853378809162,7.262259478490043,1.9348910242888286
10.346878307428694,9.827911073144662,3.8801417900964554
13.104891808780762,12.488407022560766,5.838388861896276
16.210411168584717,15.203889619984153,7.843494169940212
,18.129735381973074,9.749785714069048
,,11.79777539420408
,,13.96705703830508
,,16.288150980117354
