orange,grün,blau
-18.8,-17.55,-19.6
-14.8,-13.85,-16.1
-10.9,-10.3,-13.65
-7.2,-6.8,-10.85
-3.55,-3.35,-8
0,0,-5.3
3.55,3.35,-2.7
7.1,6.8,0
10.8,10.2,2.6
14.5,13.7,5.3
18.3,17.4,8
,,10.8
,,13.6
,,16.5
,,19.5
