x, y
5.790700000000000500e+02,1.621820677962982682e+00
5.460700000000000500e+02,1.624885825088139057e+00
4.358299999999999841e+02,1.643540680115086694e+00
4.976000000000000227e+02,1.631994489157933659e+00
6.134286485062447127e+02,1.618744415060494157e+00
4.383338070061293479e+02,1.643042105408425657e+00
5.580073720439357885e+02,1.623865345764494261e+00
