x, y
-9.000000000000000000e+00,-4.031603935743106881e-02
-8.000000000000000000e+00,-3.570435706829044875e-02
-7.000000000000000000e+00,-3.094990157247309859e-02
-6.000000000000000000e+00,-2.669033631504520374e-02
-5.000000000000000000e+00,-2.228679268885934775e-02
-4.000000000000000000e+00,-1.757405431866271989e-02
-3.000000000000000000e+00,-1.320363594704071671e-02
-2.000000000000000000e+00,-8.654797632158980208e-03
-1.000000000000000000e+00,-4.389707818278852300e-03
1.000000000000000000e+00,4.389707818278847963e-03
2.000000000000000000e+00,8.974590599060014440e-03
3.000000000000000000e+00,1.323819517322524439e-02
4.000000000000000000e+00,1.814140149744348715e-02
5.000000000000000000e+00,2.258119904970245714e-02
6.000000000000000000e+00,2.737463369873309807e-02
7.000000000000000000e+00,3.181232604681212550e-02
8.000000000000000000e+00,3.614125394232575728e-02
9.000000000000000000e+00,4.112941894862941900e-02
-1.000000000000000000e+01,-4.580644180498807949e-02
-9.000000000000000000e+00,-4.096382018323731222e-02
-8.000000000000000000e+00,-3.645160966031652655e-02
-7.000000000000000000e+00,-3.179830830211041737e-02
-6.000000000000000000e+00,-2.733714419828090977e-02
-5.000000000000000000e+00,-2.263355342296656525e-02
-4.000000000000000000e+00,-1.825439459722259100e-02
-3.000000000000000000e+00,-1.345337000687724799e-02
-2.000000000000000000e+00,-9.295063975236618134e-03
-1.000000000000000000e+00,-4.577684184753152280e-03
1.000000000000000000e+00,4.577684184753159219e-03
2.000000000000000000e+00,9.100201922444912592e-03
3.000000000000000000e+00,1.367703150466910607e-02
4.000000000000000000e+00,1.796574165168824191e-02
5.000000000000000000e+00,2.251275937237566527e-02
6.000000000000000000e+00,2.683536488941042769e-02
7.000000000000000000e+00,3.143559293481531375e-02
8.000000000000000000e+00,3.572697242060673961e-02
9.000000000000000000e+00,4.071235542010708669e-02
-1.000000000000000000e+01,-4.582624184979981058e-02
-9.000000000000000000e+00,-4.111800573959692451e-02
-8.000000000000000000e+00,-3.688534188523279883e-02
-7.000000000000000000e+00,-3.204707538406452449e-02
-6.000000000000000000e+00,-2.730985605039154551e-02
-5.000000000000000000e+00,-2.278142503463276985e-02
-4.000000000000000000e+00,-1.838225468112325220e-02
-3.000000000000000000e+00,-1.380908017028673572e-02
-2.000000000000000000e+00,-9.213665579369966288e-03
-1.000000000000000000e+00,-4.554035793891535525e-03
1.000000000000000000e+00,4.554035793891535525e-03
2.000000000000000000e+00,9.129656476816525382e-03
3.000000000000000000e+00,1.378128042988918146e-02
4.000000000000000000e+00,1.835495569342563554e-02
5.000000000000000000e+00,2.253054894499668254e-02
6.000000000000000000e+00,2.741513348779535050e-02
7.000000000000000000e+00,3.192247444876905593e-02
8.000000000000000000e+00,3.628100209480729366e-02
9.000000000000000000e+00,4.045048630721283234e-02
