z p
5.000000000000000000e+00 1.600000000000000033e-01
8.000000000000000000e+00 2.300000000000000100e-01
1.100000000000000000e+01 3.099999999999999978e-01
1.400000000000000000e+01 3.800000000000000044e-01
1.700000000000000000e+01 4.050000000000000266e-01
1.900000000000000000e+01 5.000000000000000000e-01
2.100000000000000000e+01 5.500000000000000444e-01
2.300000000000000000e+01 5.999999999999999778e-01
2.500000000000000000e+01 6.500000000000000222e-01
2.700000000000000000e+01 6.999999999999999556e-01
2.900000000000000000e+01 7.500000000000000000e-01
3.100000000000000000e+01 8.000000000000000444e-01
3.200000000000000000e+01 8.199999999999999512e-01
3.300000000000000000e+01 8.349999999999999645e-01
3.400000000000000000e+01 8.800000000000000044e-01
